#include<stdio.h>
Clrscr();
void main(){
int a[100],p,n,q,tempno,choiceno;
printf("Enter 1  if you want to sort ascending\n");
printf("Enter 2 if you want descending");
scanf("%d",&choiceno);
printf("enter no of elements in the array \n");
scanf("%d",&n);
printf("enter numbers");
for(p=0;p<n;p++){
	scanf("%d",&a[p]);
}
if(choiceno==1){
for(p=0;p<n;p++)
{
	for(q=0;q<n;q++)
	{
		if(a[q]>a[q+1])
		{
			tempno=a[q];
			a[q]=a[q+1];
			a[q+1]=tempno;
		}
	}
}
}
else
{
for(p=0;p<n;p++)
{
	for(q=0;q<n;q++)
	{
		if(a[q]<a[q+1])
		{
			tempno=a[q];
			a[q]=a[q+1];
			a[q+1]=tempno;
		}
	}
}
}
for(p=0;p<n;p++)
{
	printf("%d ",a[p]);
}
getchar();
}