#include<stdio.h>
#include<conio.h>
#include<string.h>
void main()
{
char a[100],b[100];
int equal;
clrscr();
printf("Enter Two Strings:- \n");
gets(a);
gets(b);
equal = strcmp(a,b);
if(equal == 0)
{
printf("\nBoth The Strings Are Exactly Same.");
}
else
{
printf("\nBoth The Strings Are Different.");
}
if(equal == 0)
{
printf("\n%s is Equal to %s",a,b);
}
else
{
if(a>b)
{
printf("\n%s is greater than %s",a,b);
}
else
{
printf("\n%s is lower than %s",a,b);
}
}
getch();
}

