#include<stdio.h>
#include<string.h>
#include<conio.h>
 
 main()
{
  char s[30], t[20];
  char *found;
 

  puts("Enter the first string: ");
  gets(s);
 

  puts("Enter the string to be searched: ");
  gets(t);
 

  found=strstr(s,t);
  if(found)
    printf("%d\n",found-s);
   else
    printf("-1");
  getch();
}